%YAML 1.1
%TAG !u! tag:unity3d.com,2011:
--- !u!74 &7400000
AnimationClip:
  m_ObjectHideFlags: 0
  m_PrefabParentObject: {fileID: 0}
  m_PrefabInternal: {fileID: 0}
  m_Name: Idle
  serializedVersion: 4
  m_AnimationType: 2
  m_Compressed: 0
  m_UseHighQualityCurve: 1
  m_RotationCurves: []
  m_CompressedRotationCurves: []
  m_PositionCurves: []
  m_ScaleCurves: []
  m_FloatCurves: []
  m_PPtrCurves:
  - curve:
    - time: 0
      value: {fileID: 21300000, guid: 987d6ff6bd918204db695a3e2284c703, type: 3}
    - time: .0666666701
      value: {fileID: 21300000, guid: ad2d9a401376ca1428b8313bab19df83, type: 3}
    - time: .13333334
      value: {fileID: 21300000, guid: 4819f1eabb5187b49a607a27e96735ac, type: 3}
    - time: .200000003
      value: {fileID: 21300000, guid: a7fd7b6177e77ef4eb032ef608d64b21, type: 3}
    - time: .266666681
      value: {fileID: 21300000, guid: 8465412764f401b4aaf368b4e68c68d4, type: 3}
    - time: .333333343
      value: {fileID: 21300000, guid: 8077d67197da83e4bb51541a1acb016e, type: 3}
    - time: .400000006
      value: {fileID: 21300000, guid: 8d33b4d11173f3245869ef8ad8a8b89d, type: 3}
    - time: .466666669
      value: {fileID: 21300000, guid: bcf62771ff767dd488b4b58bd68cf9df, type: 3}
    - time: .533333361
      value: {fileID: 21300000, guid: 6de124a654812fd41be8a369a855438d, type: 3}
    - time: .600000024
      value: {fileID: 21300000, guid: 9e6dc40af4c6c434bb321bfe3c016d3f, type: 3}
    - time: .666666687
      value: {fileID: 21300000, guid: c9cbe6e866ed09b479a6c6d3e5742e94, type: 3}
    - time: .733333349
      value: {fileID: 21300000, guid: 216c5c0fd75ed5d4394edbc4c18bd622, type: 3}
    - time: .800000012
      value: {fileID: 21300000, guid: e5a5a0c406f9e85418d7007f5428f52d, type: 3}
    - time: .866666675
      value: {fileID: 21300000, guid: dfe659cee2b84ab43b17e1df57df9409, type: 3}
    - time: .933333337
      value: {fileID: 21300000, guid: 9c400bb44ecdece4285676b339ef97c1, type: 3}
    attribute: m_Sprite
    path: 
    classID: 212
    script: {fileID: 0}
  m_SampleRate: 15
  m_WrapMode: 0
  m_Bounds:
    m_Center: {x: 0, y: 0, z: 0}
    m_Extent: {x: 0, y: 0, z: 0}
  m_ClipBindingConstant:
    genericBindings:
    - path: 0
      attribute: 0
      script: {fileID: 0}
      classID: 212
      customType: 23
      isPPtrCurve: 1
    pptrCurveMapping:
    - {fileID: 21300000, guid: 987d6ff6bd918204db695a3e2284c703, type: 3}
    - {fileID: 21300000, guid: ad2d9a401376ca1428b8313bab19df83, type: 3}
    - {fileID: 21300000, guid: 4819f1eabb5187b49a607a27e96735ac, type: 3}
    - {fileID: 21300000, guid: a7fd7b6177e77ef4eb032ef608d64b21, type: 3}
    - {fileID: 21300000, guid: 8465412764f401b4aaf368b4e68c68d4, type: 3}
    - {fileID: 21300000, guid: 8077d67197da83e4bb51541a1acb016e, type: 3}
    - {fileID: 21300000, guid: 8d33b4d11173f3245869ef8ad8a8b89d, type: 3}
    - {fileID: 21300000, guid: bcf62771ff767dd488b4b58bd68cf9df, type: 3}
    - {fileID: 21300000, guid: 6de124a654812fd41be8a369a855438d, type: 3}
    - {fileID: 21300000, guid: 9e6dc40af4c6c434bb321bfe3c016d3f, type: 3}
    - {fileID: 21300000, guid: c9cbe6e866ed09b479a6c6d3e5742e94, type: 3}
    - {fileID: 21300000, guid: 216c5c0fd75ed5d4394edbc4c18bd622, type: 3}
    - {fileID: 21300000, guid: e5a5a0c406f9e85418d7007f5428f52d, type: 3}
    - {fileID: 21300000, guid: dfe659cee2b84ab43b17e1df57df9409, type: 3}
    - {fileID: 21300000, guid: 9c400bb44ecdece4285676b339ef97c1, type: 3}
  m_AnimationClipSettings:
    serializedVersion: 2
    m_StartTime: 0
    m_StopTime: 1
    m_OrientationOffsetY: 0
    m_Level: 0
    m_CycleOffset: 0
    m_LoopTime: 1
    m_LoopBlend: 0
    m_LoopBlendOrientation: 0
    m_LoopBlendPositionY: 0
    m_LoopBlendPositionXZ: 0
    m_KeepOriginalOrientation: 0
    m_KeepOriginalPositionY: 1
    m_KeepOriginalPositionXZ: 0
    m_HeightFromFeet: 0
    m_Mirror: 0
  m_EditorCurves: []
  m_EulerEditorCurves: []
  m_Events: []
