%YAML 1.1
%TAG !u! tag:unity3d.com,2011:
--- !u!74 &7400000
AnimationClip:
  m_ObjectHideFlags: 0
  m_PrefabParentObject: {fileID: 0}
  m_PrefabInternal: {fileID: 0}
  m_Name: Run
  serializedVersion: 4
  m_AnimationType: 2
  m_Compressed: 0
  m_UseHighQualityCurve: 1
  m_RotationCurves: []
  m_CompressedRotationCurves: []
  m_PositionCurves: []
  m_ScaleCurves: []
  m_FloatCurves: []
  m_PPtrCurves:
  - curve:
    - time: 0
      value: {fileID: 21300000, guid: 8f5db4d2be4d6ad4e8785a837f477523, type: 3}
    - time: .0500000007
      value: {fileID: 21300000, guid: c4cdcd91fa4d31f438911b6b7f13337b, type: 3}
    - time: .100000001
      value: {fileID: 21300000, guid: edeca288dade1b546aec605cfc7e0501, type: 3}
    - time: .150000006
      value: {fileID: 21300000, guid: 8678e3e8acf46a84db63951cb06f8a59, type: 3}
    - time: .200000003
      value: {fileID: 21300000, guid: 469f1a2e0dd5bed45bea169f2fed0905, type: 3}
    - time: .25
      value: {fileID: 21300000, guid: 188cf1f44d4cce745a3fb2c2eeec7252, type: 3}
    - time: .300000012
      value: {fileID: 21300000, guid: 28c5edd1b121e624fad8ccf78b972403, type: 3}
    - time: .349999994
      value: {fileID: 21300000, guid: b93e719e6415f334ebe041752e1ad5ba, type: 3}
    - time: .400000006
      value: {fileID: 21300000, guid: c3a2661e7f19f4b4a883d75924a96c0e, type: 3}
    - time: .449999988
      value: {fileID: 21300000, guid: a01ce310b8a6e784b808c64781f32df9, type: 3}
    - time: .5
      value: {fileID: 21300000, guid: 0babef5e2ab8b1844880180d6338fc81, type: 3}
    - time: .550000012
      value: {fileID: 21300000, guid: 3fc5b18f501b713429ab1b5dee02c92e, type: 3}
    - time: .600000024
      value: {fileID: 21300000, guid: a288d640a3ece894e9687c516e181db7, type: 3}
    - time: .649999976
      value: {fileID: 21300000, guid: 25b56ac7fee2e9c4ea30c08c9159c6f5, type: 3}
    - time: .699999988
      value: {fileID: 21300000, guid: e74c5fbacc5342a42a861b9e8dd03b22, type: 3}
    attribute: m_Sprite
    path: 
    classID: 212
    script: {fileID: 0}
  m_SampleRate: 20
  m_WrapMode: 0
  m_Bounds:
    m_Center: {x: 0, y: 0, z: 0}
    m_Extent: {x: 0, y: 0, z: 0}
  m_ClipBindingConstant:
    genericBindings:
    - path: 0
      attribute: 0
      script: {fileID: 0}
      classID: 212
      customType: 23
      isPPtrCurve: 1
    pptrCurveMapping:
    - {fileID: 21300000, guid: 8f5db4d2be4d6ad4e8785a837f477523, type: 3}
    - {fileID: 21300000, guid: c4cdcd91fa4d31f438911b6b7f13337b, type: 3}
    - {fileID: 21300000, guid: edeca288dade1b546aec605cfc7e0501, type: 3}
    - {fileID: 21300000, guid: 8678e3e8acf46a84db63951cb06f8a59, type: 3}
    - {fileID: 21300000, guid: 469f1a2e0dd5bed45bea169f2fed0905, type: 3}
    - {fileID: 21300000, guid: 188cf1f44d4cce745a3fb2c2eeec7252, type: 3}
    - {fileID: 21300000, guid: 28c5edd1b121e624fad8ccf78b972403, type: 3}
    - {fileID: 21300000, guid: b93e719e6415f334ebe041752e1ad5ba, type: 3}
    - {fileID: 21300000, guid: c3a2661e7f19f4b4a883d75924a96c0e, type: 3}
    - {fileID: 21300000, guid: a01ce310b8a6e784b808c64781f32df9, type: 3}
    - {fileID: 21300000, guid: 0babef5e2ab8b1844880180d6338fc81, type: 3}
    - {fileID: 21300000, guid: 3fc5b18f501b713429ab1b5dee02c92e, type: 3}
    - {fileID: 21300000, guid: a288d640a3ece894e9687c516e181db7, type: 3}
    - {fileID: 21300000, guid: 25b56ac7fee2e9c4ea30c08c9159c6f5, type: 3}
    - {fileID: 21300000, guid: e74c5fbacc5342a42a861b9e8dd03b22, type: 3}
  m_AnimationClipSettings:
    serializedVersion: 2
    m_StartTime: 0
    m_StopTime: .75
    m_OrientationOffsetY: 0
    m_Level: 0
    m_CycleOffset: 0
    m_LoopTime: 1
    m_LoopBlend: 0
    m_LoopBlendOrientation: 0
    m_LoopBlendPositionY: 0
    m_LoopBlendPositionXZ: 0
    m_KeepOriginalOrientation: 0
    m_KeepOriginalPositionY: 1
    m_KeepOriginalPositionXZ: 0
    m_HeightFromFeet: 0
    m_Mirror: 0
  m_EditorCurves: []
  m_EulerEditorCurves: []
  m_Events: []
